{
    "KPackageStructure": "Plasma/Applet",
    "KPlugin": {
        "Authors": [
            {
                "Email": "wengxt@gmail.com",
                "Name": "Weng Xuetian",
                "Name[ar]": "Weng Xuetian",
                "Name[az]": "Weng Xuetian",
                "Name[be]": "Weng Xuetian",
                "Name[bg]": "Weng Xuetian",
                "Name[ca@valencia]": "Weng Xuetian",
                "Name[ca]": "Weng Xuetian",
                "Name[cs]": "Weng Xuetian",
                "Name[da]": "Weng Xuetian",
                "Name[de]": "Weng Xuetian",
                "Name[en_GB]": "Weng Xuetian",
                "Name[eo]": "Weng Xuetian",
                "Name[es]": "Weng Xuetian",
                "Name[et]": "Weng Xuetian",
                "Name[eu]": "Weng Xuetian",
                "Name[fi]": "Weng Xuetian",
                "Name[fr]": "Weng Xuetian",
                "Name[gl]": "Weng Xuetian",
                "Name[he]": "ונג שוטיאן",
                "Name[hu]": "Weng Xuetian",
                "Name[ia]": "Weng Xuetian",
                "Name[id]": "Weng Xuetian",
                "Name[ie]": "Weng Xuetian",
                "Name[is]": "Weng Xuetian",
                "Name[it]": "Weng Xuetian",
                "Name[ja]": "Weng Xuetian",
                "Name[ka]": "ვენგ ზუერტიანი",
                "Name[ko]": "Weng Xuetian",
                "Name[lt]": "Weng Xuetian",
                "Name[nl]": "Weng Xuetian",
                "Name[nn]": "Weng Xuetian",
                "Name[pl]": "Weng Xuetian",
                "Name[pt]": "Weng Xuetian",
                "Name[pt_BR]": "Weng Xuetian",
                "Name[ro]": "Weng Xuetian",
                "Name[ru]": "Weng Xuetian",
                "Name[sk]": "Weng Xuetian",
                "Name[sl]": "Weng Xuetian",
                "Name[sv]": "Weng Xuetian",
                "Name[ta]": "வெங்க் ஸூஷியான்",
                "Name[tr]": "Veng Şüetien",
                "Name[uk]": "Weng Xuetian",
                "Name[vi]": "Weng Xuetian",
                "Name[x-test]": "xxWeng Xuetianxx",
                "Name[zh_CN]": "Weng Xuetian",
                "Name[zh_TW]": "Weng Xuetian"
            }
        ],
        "BugReportUrl": "https://bugs.kde.org/enter_bug.cgi?product=plasmashell&component=Kimpanel",
        "Category": "Language",
        "Description": "A generic input method panel",
        "Description[ar]": "لوحة طريقة إدخال عامة",
        "Description[az]": "Əsas daxiletmə metodu paneli",
        "Description[be]": "Панэль метадаў уводу",
        "Description[bg]": "Панел с общ метод за въвеждане",
        "Description[ca@valencia]": "Un quadro del mètode d'entrada genèric",
        "Description[ca]": "Un plafó del mètode d'entrada genèric",
        "Description[cs]": "Obecný panel vstupních metod",
        "Description[da]": "Generisk panel til input-metoder",
        "Description[de]": "Ein allgemeines Eingabemethoden-Miniprogramm",
        "Description[en_GB]": "A generic input method panel",
        "Description[eo]": "Ĝenerala enigometoda panelo",
        "Description[es]": "Un panel de método de entrada genérico",
        "Description[et]": "Üldine sisestusviisi paneel",
        "Description[eu]": "Sarrera metodoen panel generiko bat",
        "Description[fi]": "Yleinen syöte­menetelmä­paneeli",
        "Description[fr]": "Un panneau générique pour les méthodes de saisie",
        "Description[gl]": "Un panel de métodos de entrada xenérico.",
        "Description[he]": "לוח שיטת קלט גנרי",
        "Description[hu]": "Általános bevitelimód-panel",
        "Description[ia]": "Un pannello generic de methodo de insertar",
        "Description[id]": "Sebuah panel metode input pada umumnya",
        "Description[is]": "Almennt spjald fyrir innsláttaraðferð",
        "Description[it]": "Un pannello generico dei metodi di inserimento",
        "Description[ja]": "一般的な入力メソッドパネル",
        "Description[ka]": "შეტანის მეთოდების ზოგადი პანელი",
        "Description[ko]": "일반적인 입력기 패널",
        "Description[lt]": "Bendrinis įvesties metodų skydelis",
        "Description[nl]": "Een paneel met een algemene invoermethode",
        "Description[nn]": "Generelt skrivesystem-panel",
        "Description[pa]": "ਆਮ ਇਨਪੁੱਟ ਢੰਗ ਪੈਨਲ",
        "Description[pl]": "Panel zwykłego wprowadzania",
        "Description[pt]": "Um painel de introdução de dados genérico",
        "Description[pt_BR]": "Painel geral do método de introdução de caracteres",
        "Description[ro]": "Panou pentru metodă de introducere generic",
        "Description[ru]": "Стандартная панель метода ввода",
        "Description[sk]": "Všeobecný panel vstupnej metódy",
        "Description[sl]": "Plošča splošnega vnosnega načina",
        "Description[sv]": "En generell panel för inmatningsmetod",
        "Description[ta]": "ஓர் பொதுவான உள்ளீடு முறை பலகை",
        "Description[tr]": "Genel bir giriş yöntemi paneli",
        "Description[uk]": "Загальна панель методів введення",
        "Description[vi]": "Một bảng phương thức nhập chung",
        "Description[x-test]": "xxA generic input method panelxx",
        "Description[zh_CN]": "通用输入法面板",
        "Description[zh_TW]": "一個通用的輸入法面板",
        "EnabledByDefault": true,
        "Icon": "draw-freehand",
        "Id": "org.kde.plasma.kimpanel",
        "License": "GPL-2.0+",
        "Name": "Input Method Panel",
        "Name[ar]": "لوحة طريقة الدّخل",
        "Name[az]": "Daxiletmə metodu paneli",
        "Name[be]": "Панэль метадаў уводу",
        "Name[bg]": "Метод на въвеждане за панел",
        "Name[ca@valencia]": "Quadro del mètode d'entrada",
        "Name[ca]": "Plafó del mètode d'entrada",
        "Name[cs]": "Panel vstupních metod",
        "Name[da]": "Panel til input-metoder",
        "Name[de]": "Eingabemethoden",
        "Name[el]": "Πλαίσιο μεθόδου εισαγωγής",
        "Name[en_GB]": "Input Method Panel",
        "Name[eo]": "Enigometoda Panelo",
        "Name[es]": "Panel del método de entrada",
        "Name[et]": "Sisestusviisi paneel",
        "Name[eu]": "Sarrera metodoen panela",
        "Name[fi]": "Syöte­menetelmä­paneeli",
        "Name[fr]": "Panneau de méthode de saisie",
        "Name[gl]": "Panel de métodos de entrada",
        "Name[he]": "לוח שיטות הקלט",
        "Name[hu]": "Bevitelimód-panel",
        "Name[ia]": "Pannello de methodo de insertar",
        "Name[id]": "Panel Metode Masukan",
        "Name[ie]": "Panel del metode de intrada",
        "Name[is]": "Spjald fyrir innsláttaraðferð",
        "Name[it]": "Pannello dei metodi di inserimento",
        "Name[ja]": "入力メソッドパネル",
        "Name[ka]": "შეტანის მეთოდის პანელი",
        "Name[ko]": "입력기 패널",
        "Name[lt]": "Įvesties metodų skydelis",
        "Name[nb]": "Skrivemetode-rute",
        "Name[nl]": "Invoermethodepaneel",
        "Name[nn]": "Skrivesystem-panel",
        "Name[pa]": "ਇਨਪੁੱਟ ਢੰਗ ਪੈਨਲ",
        "Name[pl]": "Panel metody wprowadzania",
        "Name[pt]": "Painel de Introdução de Dados",
        "Name[pt_BR]": "Painel do método de introdução de caracteres",
        "Name[ro]": "Panou pentru metodă de introducere",
        "Name[ru]": "Панель метода ввода",
        "Name[sk]": "Panel vstupnej metódy",
        "Name[sl]": "Pult vnosnega načina",
        "Name[sr@ijekavian]": "Панел метода уноса",
        "Name[sr@ijekavianlatin]": "Panel metoda unosa",
        "Name[sr@latin]": "Panel metoda unosa",
        "Name[sr]": "Панел метода уноса",
        "Name[sv]": "Panel for inmatningsmetod",
        "Name[ta]": "உள்ளீடு முறை பலகை",
        "Name[tr]": "Giriş Yöntemi Paneli",
        "Name[uk]": "Панель способів введення",
        "Name[vi]": "Bảng phương thức nhập",
        "Name[x-test]": "xxInput Method Panelxx",
        "Name[zh_CN]": "输入法面板",
        "Name[zh_TW]": "輸入法面板",
        "Website": "https://www.kde.org/plasma-desktop"
    },
    "Keywords": "Input;IM;",
    "Keywords[ar]": "إدخال;لوحة;مفاتيح;",
    "Keywords[az]": "Daxiletmə;Daxiletmə Metodu;",
    "Keywords[ca@valencia]": "Entrada;Input;IM;",
    "Keywords[ca]": "Entrada;Input;IM;",
    "Keywords[cs]": "Vstup;IM;",
    "Keywords[da]": "Input;IM;",
    "Keywords[de]": "Input;IM;",
    "Keywords[el]": "Είσοδος;IM;",
    "Keywords[en_GB]": "Input;IM;",
    "Keywords[es]": "Entrada;ME;",
    "Keywords[et]": "Sisestusviis;IM;",
    "Keywords[eu]": "Input;sarrera;IM;SM;",
    "Keywords[fi]": "Input;IM;Syöte;Syötemenetelmä;",
    "Keywords[fr]": "Entrée;Méthode de saisie;",
    "Keywords[gl]": "Entrada;ME;Input;IM;",
    "Keywords[hu]": "Bevitel;IM;",
    "Keywords[ia]": "Input;IM;",
    "Keywords[id]": "Input;IM;",
    "Keywords[it]": "Inserimento;IM;",
    "Keywords[ko]": "Input;IM;입력;입력기;",
    "Keywords[lt]": "Įvestis;TP;Tikralaikiai pokalbiai;Ivestis;Įvedimas;Ivedimas;",
    "Keywords[nb]": "Input;IM;",
    "Keywords[nl]": "Invoer;IM;",
    "Keywords[nn]": "Inndata;skrivesystem;IM;",
    "Keywords[pa]": "ਇਨਪੁੱਟ;ਇੰਪੁੱਟ;",
    "Keywords[pl]": "Wprowadzanie;IM;",
    "Keywords[pt]": "Entrada;IM;",
    "Keywords[pt_BR]": "Entrada;Introdução de caracteres;",
    "Keywords[ro]": "Input;IM;intrare;",
    "Keywords[ru]": "ввод;метод ввода;",
    "Keywords[sk]": "Vstup;IM;",
    "Keywords[sl]": "Vnos;VN;",
    "Keywords[sr@ijekavian]": "Input;IM;унос;улаз;ИМметод уноса;",
    "Keywords[sr@ijekavianlatin]": "Input;IM;unos;ulaz;IMmetod unosa;",
    "Keywords[sr@latin]": "Input;IM;unos;ulaz;IMmetod unosa;",
    "Keywords[sr]": "Input;IM;унос;улаз;ИМметод уноса;",
    "Keywords[sv]": "Inmatning;IM;",
    "Keywords[ta]": "Input;IM;உள்ளீடு;உள்ளீட்டு;மொழி;தட்டச்சு;விசை;",
    "Keywords[tr]": "Giriş;IM;",
    "Keywords[uk]": "Input;IM;введення;способи введення;ввід;",
    "Keywords[vi]": "Input;IM;nhập;phương thức nhập;",
    "Keywords[x-test]": "xxInputxx;xxIMxx;",
    "Keywords[zh_CN]": "Input;IM;输入法;输入;",
    "Keywords[zh_TW]": "Input;IM;",
    "X-Plasma-API-Minimum-Version": "6.0"
}
