{
    "KPlugin": {
        "Description": "Configure KRunner behavior",
        "Description[ar]": "اضبط سلوك مشغل.ك",
        "Description[az]": "KRunner davranışlarını ayarlamaq",
        "Description[be]": "Наладжванне паводзін KRunner",
        "Description[bg]": "Конфигуриране на поведение на KRunner",
        "Description[ca@valencia]": "Configura el comportament de KRunner",
        "Description[ca]": "Configura el comportament del KRunner",
        "Description[cs]": "Nastavit chování KRunneru",
        "Description[da]": "Indstil KRunners opførsel",
        "Description[de]": "KRunner-Verhalten einrichten",
        "Description[en_GB]": "Configure KRunner behaviour",
        "Description[eo]": "Agordi KRunner konduton",
        "Description[es]": "Configurar el comportamiento de KRunner",
        "Description[et]": "KRunneri käitumise seadistamine",
        "Description[eu]": "Konfiguratu KRunner-ren jokabidea",
        "Description[fi]": "KRunnerin toiminta-asetukset",
        "Description[fr]": "Configurer le comportement de KRunner",
        "Description[gl]": "Configurar o comportamento de KRunner.",
        "Description[he]": "הגדרת התנהגות KRunner",
        "Description[hu]": "A KRunner működésének beállítása",
        "Description[ia]": "Configura le comportamento de KRunner",
        "Description[id]": "Konfigurasi perilaku KRunner",
        "Description[is]": "Grunnstilla hegðun KRunner",
        "Description[it]": "Configura il comportamento di KRunner",
        "Description[ja]": "KRunner の挙動を設定",
        "Description[ka]": "KRunner-ის ქცევის მორგება",
        "Description[ko]": "KRunner 행동 설정",
        "Description[lt]": "Konfigūruoti KRunner elgseną",
        "Description[nl]": "Gedrag van KRunner configureren",
        "Description[nn]": "Set opp KRunner-åtferd",
        "Description[pl]": "Ustawienia zachowania KRunnera",
        "Description[pt]": "Configurar o comportamento do KRunner",
        "Description[pt_BR]": "Configurar comportamento do KRunner",
        "Description[ro]": "Configurează comportamentul KRunner",
        "Description[ru]": "Настройка строки поиска и запуска KRunner",
        "Description[sk]": "Nastaviť správanie KRunner",
        "Description[sl]": "Nastavi obnašanje programa KRunner",
        "Description[sv]": "Anpassa beteende för Kör program",
        "Description[ta]": "கேரன்னரின் நடத்தையை மாற்றியமையுங்கள்",
        "Description[tr]": "K Çalıştır davranışını yapılandırın",
        "Description[uk]": "Налаштувати поведінку KRunner",
        "Description[vi]": "Cấu hình ứng xử của KRunner",
        "Description[x-test]": "xxConfigure KRunner behaviorxx",
        "Description[zh_CN]": "配置 KRunner 行为",
        "Description[zh_TW]": "設定 KRunner 行為",
        "Icon": "krunner",
        "License": "GPL",
        "Name": "KRunner Settings",
        "Name[ar]": "إعدادات مشغل.ك",
        "Name[ast]": "Configuración de KRunner",
        "Name[az]": "KRunner ayarları",
        "Name[be]": "Налады KRunner",
        "Name[bg]": "Настройки на KRunner",
        "Name[ca@valencia]": "Configureu KRunner",
        "Name[ca]": "Configuració del KRunner",
        "Name[cs]": "Nastavení KRunner",
        "Name[da]": "KRunner-indstillinger",
        "Name[de]": "KRunner-Einstellungen",
        "Name[en_GB]": "KRunner Settings",
        "Name[eo]": "KRunner Agordoj",
        "Name[es]": "Preferencias de KRunner",
        "Name[et]": "KRunneri seadistused",
        "Name[eu]": "KRunner-ren ezarpenak",
        "Name[fi]": "KRunnerin asetukset",
        "Name[fr]": "Configuration de KRunner",
        "Name[gl]": "Configuración de KRunner",
        "Name[he]": "הגדרות KRunner",
        "Name[hu]": "KRunner beállítások",
        "Name[ia]": "Preferentias de KRunner",
        "Name[id]": "Pengaturan KRunner",
        "Name[ie]": "Parametres de KRunner",
        "Name[is]": "Stillingar KRunner",
        "Name[it]": "Impostazioni di KRunner",
        "Name[ja]": "KRunner の設定",
        "Name[ka]": "KRunner-ის მორგება",
        "Name[ko]": "KRunner 설정",
        "Name[lt]": "KRunner nuostatos",
        "Name[nl]": "Instellingen van KRunner",
        "Name[nn]": "KRunner-innstillingar",
        "Name[pa]": "ਕੇ-ਰਨਰ ਸੈਟਿੰਗਾਂ",
        "Name[pl]": "Ustawienia KRunnera",
        "Name[pt]": "Configurações do KRunner",
        "Name[pt_BR]": "Configurações do KRunner",
        "Name[ro]": "Configurări KRunner",
        "Name[ru]": "Параметры KRunner",
        "Name[sk]": "KRunner nastavenia",
        "Name[sl]": "Nastavitve za KRunner",
        "Name[sv]": "Snabbinställningar av Kör program",
        "Name[ta]": "கேரன்னர் அமைப்புகள்",
        "Name[tr]": "K Çalıştır Ayarları",
        "Name[uk]": "Параметри KRunner",
        "Name[vi]": "Thiết lập KRunner",
        "Name[x-test]": "xxKRunner Settingsxx",
        "Name[zh_CN]": "KRunner 设置",
        "Name[zh_TW]": "KRunner 設定"
    }
}
